This is the ACS PUMS code list for place of work state and country. Row headers are in column A and column headers are in row 3.,,,,,,,
2009-2013 PUMS Place of Work State/Country Code List (POWSP05 and POWSP12),,,,,,,
2012-2013 PUMS Code (POWSP12),2009-2011 PUMS Code (POWSP05),PUMS Place of Work State/Country Code Description (POWSP05 and POWSP12),Detailed Place of Work State/Country Code,Detailed Place of Work State/Country Code Description,,,
001,001,Alabama/AL,001,Alabama/AL,,,
002,002,Alaska/AK,002,Alaska/AK,,,
004,004,Arizona/AZ,004,Arizona/AZ,,,
005,005,Arkansas/AR,005,Arkansas/AR,,,
006,006,California/CA,006,California/CA,,,
008,008,Colorado/CO,008,Colorado/CO,,,
009,009,Connecticut/CT,009,Connecticut/CT,,,
010,010,Delaware/DE,010,Delaware/DE,,,
011,011,District of Columbia/DC,011,District of Columbia/DC,,,
012,012,Florida/FL,012,Florida/FL,,,
013,013,Georgia/GA,013,Georgia/GA,,,
015,015,Hawaii/HI,015,Hawaii/HI,,,
016,016,Idaho/ID,016,Idaho/ID,,,
017,017,Illinois/IL,017,Illinois/IL,,,
018,018,Indiana/IN,018,Indiana/IN,,,
019,019,Iowa/IA,019,Iowa/IA,,,
020,020,Kansas/KS,020,Kansas/KS,,,
021,021,Kentucky/KY,021,Kentucky/KY,,,
022,022,Louisiana/LA,022,Louisiana/LA,,,
023,023,Maine/ME,023,Maine/ME,,,
024,024,Maryland/MD,024,Maryland/MD,,,
025,025,Massachusetts/MA,025,Massachusetts/MA,,,
026,026,Michigan/MI,026,Michigan/MI,,,
027,027,Minnesota/MN,027,Minnesota/MN,,,
028,028,Mississippi/MS,028,Mississippi/MS,,,
029,029,Missouri/MO,029,Missouri/MO,,,
030,030,Montana/MT,030,Montana/MT,,,
031,031,Nebraska/NE,031,Nebraska/NE,,,
032,032,Nevada/NV,032,Nevada/NV,,,
033,033,New Hampshire/NH,033,New Hampshire/NH,,,
034,034,New Jersey/NJ,034,New Jersey/NJ,,,
035,035,New Mexico/NM,035,New Mexico/NM,,,
036,036,New York/NY,036,New York/NY,,,
037,037,North Carolina/NC,037,North Carolina/NC,,,
038,038,North Dakota/ND,038,North Dakota/ND,,,
039,039,Ohio/OH,039,Ohio/OH,,,
040,040,Oklahoma/OK,040,Oklahoma/OK,,,
041,041,Oregon/OR,041,Oregon/OR,,,
042,042,Pennsylvania/PA,042,Pennsylvania/PA,,,
044,044,Rhode Island/RI,044,Rhode Island/RI,,,
045,045,South Carolina/SC,045,South Carolina/SC,,,
046,046,South Dakota/SD,046,South Dakota/SD,,,
047,047,Tennessee/TN,047,Tennessee/TN,,,
048,048,Texas/TX,048,Texas/TX,,,
049,049,Utah/UT,049,Utah/UT,,,
050,050,Vermont/VT,050,Vermont/VT,,,
051,051,Virginia/VA,051,Virginia/VA,,,
053,053,Washington/WA,053,Washington/WA,,,
054,054,West Virginia/WV,054,West Virginia/WV,,,
055,055,Wisconsin/WI,055,Wisconsin/WI,,,
056,056,Wyoming/WY,056,Wyoming/WY,,,
072,072,Puerto Rico,072,Puerto Rico,,,
166,166,Europe,100,Albania,,,
.,.,.,101,Andorra,,,
.,.,.,102,Austria,,,
.,.,.,103,Belgium,,,
.,.,.,104,Bulgaria,,,
.,.,.,105,Czechoslovakia,,,
.,.,.,106,Denmark,,,
.,.,.,107,Faroe Islands,,,
.,.,.,108,Finland,,,
.,.,.,109,France,,,
.,.,.,110,Germany,,,
.,.,.,115,Gibralter,,,
.,.,.,116,Greece,,,
.,.,.,117,Hungary,,,
.,.,.,118,Iceland,,,
.,.,.,119,Ireland,,,
.,.,.,120,Italy,,,
.,.,.,121,Jan Meyan,,,
.,.,.,122,Liechtenstein,,,
.,.,.,123,Luxembourg,,,
.,.,.,124,Malta,,,
.,.,.,125,Monaco,,,
.,.,.,126,Netherlands,,,
.,.,.,127,Norway,,,
.,.,.,128,Poland,,,
.,.,.,129,Portugal,,,
.,.,.,130,Azores Islands,,,
.,.,.,131,Madeira Islands,,,
.,.,.,132,Romania,,,
.,.,.,133,San Marino,,,
.,.,.,134,Spain,,,
.,.,.,135,Svalbard,,,
.,.,.,136,Sweden,,,
.,.,.,137,Switzerland,,,
.,.,.,138,United Kingdom,,,
.,.,.,139,England,,,
.,.,.,140,Scotland,,,
.,.,.,141,Wales,,,
.,.,.,142,Northern Ireland,,,
.,.,.,143,Guernsey,,,
.,.,.,144,Jersey,,,
.,.,.,145,Isle of Man,,,
.,.,.,146,Vatican City,,,
.,.,.,147,Yugoslavia,,,
.,.,.,148,Czech Republic,,,
.,.,.,149,Slovakia,,,
.,.,.,150,Bosnia and Herzegovina,,,
.,.,.,151,Croatia,,,
.,.,.,152,Macedonia,,,
.,.,.,153,Slovenia,,,
.,.,.,154,Serbia,,,
.,.,.,155,Estonia,,,
.,.,.,156,Latvia,,,
.,.,.,157,Lithuania,,,
.,.,.,160,Belarus,,,
.,.,.,162,Moldova,,,
.,.,.,163,Russia,,,
.,.,.,164,Ukraine,,,
.,.,.,165,USSR,,,
.,.,.,166,Europe,,,
.,.,.,167,Kosovo,,,
.,.,.,168,Montenegro,,,
.,213,Iraq,213,Iraq,,,
251,251,Eastern Asia,207,China,,,
.,.,.,209,Hong Kong,,,
.,.,.,215,Japan,,,
.,.,.,217,Korea,,,
.,.,.,220,South Korea,,,
.,.,.,221,North Korea,,,
.,.,.,225,Macau,,,
.,.,.,228,Mongolia,,,
.,.,.,232,Paracel Islands,,,
.,.,.,240,Taiwan,,,
254,.,"Other Asia, Not Specified",158,Armenia,,,
.,.,.,159,Azerbaijan,,,
.,.,.,161,Georgia,,,
.,.,.,200,Afghanistan,,,
.,.,.,201,Bahrain,,,
.,.,.,202,Bangladesh,,,
.,.,.,203,Bhutan,,,
.,.,.,204,Brunei,,,
.,.,.,205,Myanmar,,,
.,.,.,206,Cambodia,,,
.,.,.,208,Cyprus,,,
.,.,.,210,India,,,
.,.,.,211,Indonesia,,,
.,.,.,212,Iran,,,
.,.,.,213,Iraq,,,
.,.,.,214,Israel,,,
.,.,.,216,Jordan,,,
.,.,.,218,Kazakhstan,,,
.,.,.,219,Kyrgyzstan,,,
.,.,.,222,Kuwait,,,
.,.,.,223,Laos,,,
.,.,.,224,Lebanon,,,
.,.,.,226,Malaysia,,,
.,.,.,227,Maldives,,,
.,.,.,229,Nepal,,,
.,.,.,230,Oman,,,
.,.,.,231,Pakistan,,,
.,.,.,233,Philippines,,,
.,.,.,234,Qatar,,,
.,.,.,235,Saudi Arabia,,,
.,.,.,236,Singapore,,,
.,.,.,237,Spratley Islands,,,
.,.,.,238,Sri Lanka,,,
.,.,.,239,Syria,,,
.,.,.,241,Tajikistan,,,
.,.,.,242,Thailand,,,
.,.,.,243,Turkey,,,
.,.,.,244,Turkmenistan,,,
.,.,.,245,United Arab Emirates,,,
.,.,.,246,Uzbekistan,,,
.,.,.,247,Vietnam,,,
.,.,.,248,Yemen,,,
.,.,.,249,Asia,,,
.,.,.,250,East Timor,,,
.,254,"Other Asia, Not Specified",158,Armenia,,,
.,.,.,159,Azerbaijan,,,
.,.,.,161,Georgia,,,
.,.,.,200,Afghanistan,,,
.,.,.,201,Bahrain,,,
.,.,.,202,Bangladesh,,,
.,.,.,203,Bhutan,,,
.,.,.,204,Brunei,,,
.,.,.,205,Myanmar,,,
.,.,.,206,Cambodia,,,
.,.,.,208,Cyprus,,,
.,.,.,210,India,,,
.,.,.,211,Indonesia,,,
.,.,.,212,Iran,,,
.,.,.,214,Israel,,,
.,.,.,216,Jordan,,,
.,.,.,218,Kazakhstan,,,
.,.,.,219,Kyrgyzstan,,,
.,.,.,222,Kuwait,,,
.,.,.,223,Laos,,,
.,.,.,224,Lebanon,,,
.,.,.,226,Malaysia,,,
.,.,.,227,Maldives,,,
.,.,.,229,Nepal,,,
.,.,.,230,Oman,,,
.,.,.,231,Pakistan,,,
.,.,.,233,Philippines,,,
.,.,.,234,Qatar,,,
.,.,.,235,Saudi Arabia,,,
.,.,.,236,Singapore,,,
.,.,.,237,Spratley Islands,,,
.,.,.,238,Sri Lanka,,,
.,.,.,239,Syria,,,
.,.,.,241,Tajikistan,,,
.,.,.,242,Thailand,,,
.,.,.,243,Turkey,,,
.,.,.,244,Turkmenistan,,,
.,.,.,245,United Arab Emirates,,,
.,.,.,246,Uzbekistan,,,
.,.,.,247,Vietnam,,,
.,.,.,248,Yemen,,,
.,.,.,249,Asia,,,
.,.,.,250,East Timor,,,
301,.,Canada,301,Canada,,,
303,303,Mexico,303,Mexico,,,
399,.,"Americas, Not Specified",076,Navassa Island,,,
.,.,.,078,U.S. Virgin Islands,,,
.,.,.,300,Bermuda,,,
.,.,.,302,Greenland,,,
.,.,.,304,St Pierre & Miquelon,,,
.,.,.,305,North America,,,
.,.,.,310,Belize,,,
.,.,.,311,Costa Rica,,,
.,.,.,312,El Salvador,,,
.,.,.,313,Guatemala,,,
.,.,.,314,Honduras,,,
.,.,.,315,Nicaragua,,,
.,.,.,316,Panama,,,
.,.,.,317,Central America,,,
.,.,.,320,Anguilla,,,
.,.,.,321,Antigua & Barbuda,,,
.,.,.,322,Aruba,,,
.,.,.,323,Bahamas,,,
.,.,.,324,Barbados,,,
.,.,.,325,British Virgin Islands,,,
.,.,.,326,Cayman Islands,,,
.,.,.,327,Cuba,,,
.,.,.,328,Dominica,,,
.,.,.,329,Dominican Republic,,,
.,.,.,330,Grenada,,,
.,.,.,331,Guadeloupe,,,
.,.,.,332,Haiti,,,
.,.,.,333,Jamaica,,,
.,.,.,334,Martinique,,,
.,.,.,335,Montserrat,,,
.,.,.,336,Netherlands Antilles,,,
.,.,.,337,St Barthelemy,,,
.,.,.,338,St Kitts-Nevis,,,
.,.,.,339,St Lucia,,,
.,.,.,340,St Vincent & the Grenadines,,,
.,.,.,341,Trinidad & Tobago,,,
.,.,.,342,Turks & Caicos Islands,,,
.,.,.,343,West Indies,,,
.,.,.,344,Bonaire,,,
.,.,.,345,Curaçao,,,
.,.,.,346,Saba,,,
.,.,.,347,Sint Eustatius,,,
.,.,.,348,Sint Maarten,,,
.,.,.,360,Argentina,,,
.,.,.,361,Bolivia,,,
.,.,.,362,Brazil,,,
.,.,.,363,Chile,,,
.,.,.,364,Colombia,,,
.,.,.,365,Ecuador,,,
.,.,.,366,Falkland Islands,,,
.,.,.,367,French Guiana,,,
.,.,.,368,Guyana,,,
.,.,.,369,Paraguay,,,
.,.,.,370,Peru,,,
.,.,.,371,Suriname,,,
.,.,.,372,Uruguay,,,
.,.,.,373,Venezuela,,,
.,.,.,374,South America,,,
.,399,"Americas, Not Specified",076,Navassa Island,,,
.,.,.,078,U.S. Virgin Islands,,,
.,.,.,300,Bermuda,,,
.,.,.,301,Canada,,,
.,.,.,302,Greenland,,,
.,.,.,304,St Pierre & Miquelon,,,
.,.,.,305,North America,,,
.,.,.,310,Belize,,,
.,.,.,311,Costa Rica,,,
.,.,.,312,El Salvador,,,
.,.,.,313,Guatemala,,,
.,.,.,314,Honduras,,,
.,.,.,315,Nicaragua,,,
.,.,.,316,Panama,,,
.,.,.,317,Central America,,,
.,.,.,320,Anguilla,,,
.,.,.,321,Antigua & Barbuda,,,
.,.,.,322,Aruba,,,
.,.,.,323,Bahamas,,,
.,.,.,324,Barbados,,,
.,.,.,325,British Virgin Islands,,,
.,.,.,326,Cayman Islands,,,
.,.,.,327,Cuba,,,
.,.,.,328,Dominica,,,
.,.,.,329,Dominican Republic,,,
.,.,.,330,Grenada,,,
.,.,.,331,Guadeloupe,,,
.,.,.,332,Haiti,,,
.,.,.,333,Jamaica,,,
.,.,.,334,Martinique,,,
.,.,.,335,Montserrat,,,
.,.,.,336,Netherlands Antilles,,,
.,.,.,337,St Barthelemy,,,
.,.,.,338,St Kitts-Nevis,,,
.,.,.,339,St Lucia,,,
.,.,.,340,St Vincent & the Grenadines,,,
.,.,.,341,Trinidad & Tobago,,,
.,.,.,342,Turks & Caicos Islands,,,
.,.,.,343,West Indies,,,
.,.,.,344,Bonaire,,,
.,.,.,345,Curaçao,,,
.,.,.,346,Saba,,,
.,.,.,347,Sint Eustatius,,,
.,.,.,348,Sint Maarten,,,
.,.,.,360,Argentina,,,
.,.,.,361,Bolivia,,,
.,.,.,362,Brazil,,,
.,.,.,363,Chile,,,
.,.,.,364,Colombia,,,
.,.,.,365,Ecuador,,,
.,.,.,366,Falkland Islands,,,
.,.,.,367,French Guiana,,,
.,.,.,368,Guyana,,,
.,.,.,369,Paraguay,,,
.,.,.,370,Peru,,,
.,.,.,371,Suriname,,,
.,.,.,372,Uruguay,,,
.,.,.,373,Venezuela,,,
.,.,.,374,South America,,,
555,.,"Other U.S. Island Areas, Not Specified, Africa, Oceania, At Sea, or Abroad, Not Specified",060,American Samoa,,,
.,.,.,066,Guam,,,
.,.,.,067,Johnston Atoll,,,
.,.,.,069,Northern Marianas,,,
.,.,.,071,Midway Islands,,,
.,.,.,079,Wake Island,,,
.,.,.,081,Baker Island,,,
.,.,.,084,Howland Island,,,
.,.,.,086,Jarvis Island,,,
.,.,.,089,Kingman Reef,,,
.,.,.,095,Palmyra Atoll,,,
.,.,.,096,"U.S. Island Areas, not specified",,,
.,.,.,400,Algeria,,,
.,.,.,401,Angola,,,
.,.,.,402,Benin,,,
.,.,.,403,Botswana,,,
.,.,.,404,British Indian Ocean Territory,,,
.,.,.,405,Burkina Faso,,,
.,.,.,406,Burundi,,,
.,.,.,407,Cameroon,,,
.,.,.,408,Cape Verde,,,
.,.,.,409,Central African Republic,,,
.,.,.,410,Chad,,,
.,.,.,411,Comoros,,,
.,.,.,412,Congo,,,
.,.,.,413,Djibouti,,,
.,.,.,414,Egypt,,,
.,.,.,415,Equatorial Guinea,,,
.,.,.,416,Ethiopia,,,
.,.,.,417,Eritrea,,,
.,.,.,418,Europa Island,,,
.,.,.,419,Gabon,,,
.,.,.,420,Gambia,,,
.,.,.,421,Ghana,,,
.,.,.,422,Glorioso Islands,,,
.,.,.,423,Guinea,,,
.,.,.,424,Guinea-Bissau,,,
.,.,.,425,Ivory Coast,,,
.,.,.,426,Juan De Nova Island,,,
.,.,.,427,Kenya,,,
.,.,.,428,Lesotho,,,
.,.,.,429,Liberia,,,
.,.,.,430,Libya,,,
.,.,.,431,Madagascar,,,
.,.,.,432,Malawi,,,
.,.,.,433,Mali,,,
.,.,.,434,Mauritania,,,
.,.,.,435,Mayotte,,,
.,.,.,436,Morocco,,,
.,.,.,437,Mozambique,,,
.,.,.,438,Namibia,,,
.,.,.,439,Niger,,,
.,.,.,440,Nigeria,,,
.,.,.,441,Reunion,,,
.,.,.,442,Rwanda,,,
.,.,.,443,Sao Tome & Principe,,,
.,.,.,444,Senegal,,,
.,.,.,445,Mauritius,,,
.,.,.,446,Seychelles,,,
.,.,.,447,Sierra Leone,,,
.,.,.,448,Somalia,,,
.,.,.,449,South Africa,,,
.,.,.,450,St Helena,,,
.,.,.,451,Sudan,,,
.,.,.,452,Swaziland,,,
.,.,.,453,Tanzania,,,
.,.,.,454,Togo,,,
.,.,.,455,Tromelin Island,,,
.,.,.,456,Tunisia,,,
.,.,.,457,Uganda,,,
.,.,.,458,Western Sahara,,,
.,.,.,459,Democratic Republic of Congo (Zaire),,,
.,.,.,460,Zambia,,,
.,.,.,461,Zimbabwe,,,
.,.,.,462,Africa,,,
.,.,.,463,South Sudan,,,
.,.,.,501,Australia,,,
.,.,.,502,"Christmas Island, Indian Ocean",,,
.,.,.,505,Cook Islands,,,
.,.,.,506,Coral Sea Islands,,,
.,.,.,507,Heard & McDonald Islands,,,
.,.,.,508,Fiji,,,
.,.,.,509,French Polynesia,,,
.,.,.,510,Kiribati,,,
.,.,.,511,Marshall Islands,,,
.,.,.,512,Micronesia,,,
.,.,.,513,Nauru,,,
.,.,.,514,New Caledonia,,,
.,.,.,515,New Zealand,,,
.,.,.,516,Niue,,,
.,.,.,517,Norfolk Island,,,
.,.,.,518,Palau,,,
.,.,.,519,Papua New Guinea,,,
.,.,.,520,Pitcairn Islands,,,
.,.,.,521,Solomon Islands,,,
.,.,.,522,Tokelau,,,
.,.,.,523,Tonga,,,
.,.,.,524,Tuvalu,,,
.,.,.,525,Vanuatu,,,
.,.,.,526,Wallis & Futuna Islands,,,
.,.,.,527,Samoa,,,
.,.,.,528,Oceania,,,
.,.,.,554,At Sea,,,
.,.,.,555,"Abroad, not specified",,,
.,555,"Other U.S. Island Areas, Not Specified, Africa, Oceania, At Sea, or Abroad, Not Specified",060,American Samoa,,,
.,.,.,066,Guam,,,
.,.,.,067,Johnston Atoll,,,
.,.,.,069,Northern Marianas,,,
.,.,.,071,Midway Islands,,,
.,.,.,079,Wake Island,,,
.,.,.,081,Baker Island,,,
.,.,.,084,Howland Island,,,
.,.,.,086,Jarvis Island,,,
.,.,.,089,Kingman Reef,,,
.,.,.,095,Palmyra Atoll,,,
.,.,.,096,"U.S. Island Areas, not specified",,,
.,.,.,400,Algeria,,,
.,.,.,401,Angola,,,
.,.,.,402,Benin,,,
.,.,.,403,Botswana,,,
.,.,.,404,British Indian Ocean Territory,,,
.,.,.,405,Burkina Faso,,,
.,.,.,406,Burundi,,,
.,.,.,407,Cameroon,,,
.,.,.,408,Cape Verde,,,
.,.,.,409,Central African Republic,,,
.,.,.,410,Chad,,,
.,.,.,411,Comoros,,,
.,.,.,412,Congo,,,
.,.,.,413,Djibouti,,,
.,.,.,414,Egypt,,,
.,.,.,415,Equatorial Guinea,,,
.,.,.,416,Ethiopia,,,
.,.,.,417,Eritrea,,,
.,.,.,418,Europa Island,,,
.,.,.,419,Gabon,,,
.,.,.,420,Gambia,,,
.,.,.,421,Ghana,,,
.,.,.,422,Glorioso Islands,,,
.,.,.,423,Guinea,,,
.,.,.,424,Guinea-Bissau,,,
.,.,.,425,Ivory Coast,,,
.,.,.,426,Juan De Nova Island,,,
.,.,.,427,Kenya,,,
.,.,.,428,Lesotho,,,
.,.,.,429,Liberia,,,
.,.,.,430,Libya,,,
.,.,.,431,Madagascar,,,
.,.,.,432,Malawi,,,
.,.,.,433,Mali,,,
.,.,.,434,Mauritania,,,
.,.,.,435,Mayotte,,,
.,.,.,436,Morocco,,,
.,.,.,437,Mozambique,,,
.,.,.,438,Namibia,,,
.,.,.,439,Niger,,,
.,.,.,440,Nigeria,,,
.,.,.,441,Reunion,,,
.,.,.,442,Rwanda,,,
.,.,.,443,Sao Tome & Principe,,,
.,.,.,444,Senegal,,,
.,.,.,445,Mauritius,,,
.,.,.,446,Seychelles,,,
.,.,.,447,Sierra Leone,,,
.,.,.,448,Somalia,,,
.,.,.,449,South Africa,,,
.,.,.,450,St Helena,,,
.,.,.,451,Sudan,,,
.,.,.,452,Swaziland,,,
.,.,.,453,Tanzania,,,
.,.,.,454,Togo,,,
.,.,.,455,Tromelin Island,,,
.,.,.,456,Tunisia,,,
.,.,.,457,Uganda,,,
.,.,.,458,Western Sahara,,,
.,.,.,459,Democratic Republic of Congo (Zaire),,,
.,.,.,460,Zambia,,,
.,.,.,461,Zimbabwe,,,
.,.,.,462,Africa,,,
.,.,.,501,Australia,,,
.,.,.,502,"Christmas Island, Indian Ocean",,,
.,.,.,505,Cook Islands,,,
.,.,.,506,Coral Sea Islands,,,
.,.,.,507,Heard & McDonald Islands,,,
.,.,.,508,Fiji,,,
.,.,.,509,French Polynesia,,,
.,.,.,510,Kiribati,,,
.,.,.,511,Marshall Islands,,,
.,.,.,512,Micronesia,,,
.,.,.,513,Nauru,,,
.,.,.,514,New Caledonia,,,
.,.,.,515,New Zealand,,,
.,.,.,516,Niue,,,
.,.,.,517,Norfolk Island,,,
.,.,.,518,Palau,,,
.,.,.,519,Papua New Guinea,,,
.,.,.,520,Pitcairn Islands,,,
.,.,.,521,Solomon Islands,,,
.,.,.,522,Tokelau,,,
.,.,.,523,Tonga,,,
.,.,.,524,Tuvalu,,,
.,.,.,525,Vanuatu,,,
.,.,.,526,Wallis & Futuna Islands,,,
.,.,.,527,Samoa,,,
.,.,.,528,Oceania,,,
.,.,.,554,At Sea,,,
.,.,.,555,"Abroad, not specified",,,